.................
----------------------------------------------------------------------
Ran 17 tests in 1.787s

OK
Name             Stmts   Miss Branch BrPart  Cover   Missing
------------------------------------------------------------
Collatz.py          39      2     16      1    95%   59->68, 68-69
TestCollatz.py      74      0      0      0   100%
------------------------------------------------------------
TOTAL              113      2     16      1    98%
